{
  "kind": "collectionType",
  "collectionName": "application",
  "info": {
    "name": "Application"
  },
  "options": {
    "increments": true,
    "timestamps": true
  },
  "attributes": {
    "brand": {
      "type": "string"
    },
    "showChangelog": {
      "type": "boolean"
    },
    "enableGTM": {
      "type": "boolean"
    },
    "annoucements": {
      "type": "json"
    },
    "requiresAuth": {
      "type": "boolean",
      "default": false
    },
    "themeToggle": {
      "type": "boolean",
      "default": true
    }
  }
}
